%YAML 1.1
%TAG !u! tag:unity3d.com,2011:
--- !u!1001 &100100000
Prefab:
  m_ObjectHideFlags: 1
  serializedVersion: 2
  m_Modification:
    m_TransformParent: {fileID: 0}
    m_Modifications: []
    m_RemovedComponents: []
  m_SourcePrefab: {fileID: 0}
  m_RootGameObject: {fileID: 1488331622988390}
  m_IsPrefabAsset: 1
--- !u!1 &1488331622988390
GameObject:
  m_ObjectHideFlags: 0
  m_CorrespondingSourceObject: {fileID: 0}
  m_PrefabInternal: {fileID: 100100000}
  serializedVersion: 6
  m_Component:
  - component: {fileID: 4809182709073576}
  - component: {fileID: 114080795898339220}
  m_Layer: 0
  m_Name: Map
  m_TagString: Untagged
  m_Icon: {fileID: 0}
  m_NavMeshLayer: 0
  m_StaticEditorFlags: 0
  m_IsActive: 1
--- !u!4 &4809182709073576
Transform:
  m_ObjectHideFlags: 1
  m_CorrespondingSourceObject: {fileID: 0}
  m_PrefabInternal: {fileID: 100100000}
  m_GameObject: {fileID: 1488331622988390}
  m_LocalRotation: {x: 0, y: 0, z: 0, w: 1}
  m_LocalPosition: {x: 0, y: 25.7, z: 0}
  m_LocalScale: {x: 1, y: 1, z: 1}
  m_Children: []
  m_Father: {fileID: 0}
  m_RootOrder: 0
  m_LocalEulerAnglesHint: {x: 0, y: 0, z: 0}
--- !u!114 &114080795898339220
MonoBehaviour:
  m_ObjectHideFlags: 1
  m_CorrespondingSourceObject: {fileID: 0}
  m_PrefabInternal: {fileID: 100100000}
  m_GameObject: {fileID: 1488331622988390}
  m_Enabled: 1
  m_EditorHideFlags: 0
  m_Script: {fileID: 11500000, guid: c23c74f3411f2a64890b3fcd951355c9, type: 3}
  m_Name: 
  m_EditorClassIdentifier: 
  rows: 3
  cols: 3
  roomWidth: 60
  roomHeight: 60
  roomPrefab:
  - {fileID: 1458747320875646, guid: c7401bd7dcf8df84291bdc1ccd6a264c, type: 2}
  - {fileID: 1042756869851266, guid: 93469771c25d08b41a6d8d3a43ebc78a, type: 2}
  - {fileID: 1666572532778042, guid: dc350feed7974c54c928f97d29801ee8, type: 2}
  - {fileID: 1478679848172958, guid: 2b0bf85b435d1ab429097243ad6bc05a, type: 2}
  seed: 1
  mapOfTheDay: 1
  randomMap: 0
  seededMap: 0
